%YAML 1.1
%TAG !u! tag:unity3d.com,2011:
--- !u!1 &8754591825926673175
GameObject:
  m_ObjectHideFlags: 0
  m_CorrespondingSourceObject: {fileID: 0}
  m_PrefabInstance: {fileID: 0}
  m_PrefabAsset: {fileID: 0}
  serializedVersion: 6
  m_Component:
  - component: {fileID: 7484387010981970776}
  - component: {fileID: 1343286392980392947}
  - component: {fileID: 1025868348847414659}
  - component: {fileID: -8633365998782037378}
  m_Layer: 0
  m_Name: EnemyPrefab
  m_TagString: Untagged
  m_Icon: {fileID: 0}
  m_NavMeshLayer: 0
  m_StaticEditorFlags: 0
  m_IsActive: 1
--- !u!4 &7484387010981970776
Transform:
  m_ObjectHideFlags: 0
  m_CorrespondingSourceObject: {fileID: 0}
  m_PrefabInstance: {fileID: 0}
  m_PrefabAsset: {fileID: 0}
  m_GameObject: {fileID: 8754591825926673175}
  m_LocalRotation: {x: 0, y: 0, z: 0, w: 1}
  m_LocalPosition: {x: 2.3118, y: 0.043200016, z: 0}
  m_LocalScale: {x: 1, y: 1, z: 1}
  m_Children: []
  m_Father: {fileID: 0}
  m_RootOrder: 0
  m_LocalEulerAnglesHint: {x: 0, y: 0, z: 0}
--- !u!212 &1343286392980392947
SpriteRenderer:
  m_ObjectHideFlags: 0
  m_CorrespondingSourceObject: {fileID: 0}
  m_PrefabInstance: {fileID: 0}
  m_PrefabAsset: {fileID: 0}
  m_GameObject: {fileID: 8754591825926673175}
  m_Enabled: 1
  m_CastShadows: 0
  m_ReceiveShadows: 0
  m_DynamicOccludee: 1
  m_MotionVectors: 1
  m_LightProbeUsage: 1
  m_ReflectionProbeUsage: 1
  m_RayTracingMode: 0
  m_RayTraceProcedural: 0
  m_RenderingLayerMask: 1
  m_RendererPriority: 0
  m_Materials:
  - {fileID: 10754, guid: 0000000000000000f000000000000000, type: 0}
  m_StaticBatchInfo:
    firstSubMesh: 0
    subMeshCount: 0
  m_StaticBatchRoot: {fileID: 0}
  m_ProbeAnchor: {fileID: 0}
  m_LightProbeVolumeOverride: {fileID: 0}
  m_ScaleInLightmap: 1
  m_ReceiveGI: 1
  m_PreserveUVs: 0
  m_IgnoreNormalsForChartDetection: 0
  m_ImportantGI: 0
  m_StitchLightmapSeams: 1
  m_SelectedEditorRenderState: 0
  m_MinimumChartSize: 4
  m_AutoUVMaxDistance: 0.5
  m_AutoUVMaxAngle: 89
  m_LightmapParameters: {fileID: 0}
  m_SortingLayerID: 0
  m_SortingLayer: 0
  m_SortingOrder: 0
  m_Sprite: {fileID: 7482667652216324306, guid: 48e93eef0688c4a259cb0eddcd8661f7,
    type: 3}
  m_Color: {r: 1, g: 1, b: 1, a: 1}
  m_FlipX: 0
  m_FlipY: 0
  m_DrawMode: 0
  m_Size: {x: 1, y: 1}
  m_AdaptiveModeThreshold: 0.5
  m_SpriteTileMode: 0
  m_WasSpriteAssigned: 1
  m_MaskInteraction: 0
  m_SpriteSortPoint: 0
--- !u!114 &1025868348847414659
MonoBehaviour:
  m_ObjectHideFlags: 0
  m_CorrespondingSourceObject: {fileID: 0}
  m_PrefabInstance: {fileID: 0}
  m_PrefabAsset: {fileID: 0}
  m_GameObject: {fileID: 8754591825926673175}
  m_Enabled: 1
  m_EditorHideFlags: 0
  m_Script: {fileID: 11500000, guid: 6f58dfa718ab7534c876a9ab3ea02525, type: 3}
  m_Name: 
  m_EditorClassIdentifier: 
  health: 0
  attack: 0
  def: 0
--- !u!114 &-8633365998782037378
MonoBehaviour:
  m_ObjectHideFlags: 0
  m_CorrespondingSourceObject: {fileID: 0}
  m_PrefabInstance: {fileID: 0}
  m_PrefabAsset: {fileID: 0}
  m_GameObject: {fileID: 8754591825926673175}
  m_Enabled: 1
  m_EditorHideFlags: 0
  m_Script: {fileID: 11500000, guid: 117b9b8b24e2f1c44ab7fa1d0ca53bfd, type: 3}
  m_Name: 
  m_EditorClassIdentifier: 
  arrowSprites:
  - {fileID: 21300000, guid: e3b62ca49898088468ecaaa0da15f73b, type: 3}
  - {fileID: 21300000, guid: dd59856218a65dc49afd460f7ffe3196, type: 3}
  - {fileID: 21300000, guid: 980f704d23b415b4bbbc1bb183477537, type: 3}
  - {fileID: 21300000, guid: c74567c81aa718f41bc6ce2085a15b62, type: 3}
  arrowDirection: {fileID: 0}
  leftArrow: {fileID: 21300000, guid: dd59856218a65dc49afd460f7ffe3196, type: 3}
  rightArrow: {fileID: 21300000, guid: e3b62ca49898088468ecaaa0da15f73b, type: 3}
  upArrow: {fileID: 21300000, guid: c74567c81aa718f41bc6ce2085a15b62, type: 3}
  downArrow: {fileID: 21300000, guid: 980f704d23b415b4bbbc1bb183477537, type: 3}
  redUp: {fileID: 21300000, guid: bb579254578aad749ac50d0a6be610be, type: 3}
  redDown: {fileID: 21300000, guid: 9ecdf6a3e1aff774ab9199674caa4a3f, type: 3}
  redRight: {fileID: 21300000, guid: 8776a05adf5b31449baabf2cc2dc45a5, type: 3}
  redLeft: {fileID: 21300000, guid: 8498e78096be23244ba8b8a558eab308, type: 3}
  inRange: 0
